{
    "are_timezones_available": "e9d186a11303ede3bdf2431bfa7a5bbcd5a1a9eb",
    "sons_cache_glpi_entities_0": "10ce415265dab31045900d5a08b29eb9fddba3e5",
    "ancestors_cache_glpi_entities_0": "8739602554c7f3241958e3cc9b57fdecb474d508",
    "ancestors_cache_glpi_entities_cfcd208495d565ef66e7dff9f98764da": "8739602554c7f3241958e3cc9b57fdecb474d508",
    "all_possible_rights": "bbce746d35b046b20b8a1a302572c2acce504c34",
    "dashboard_card_central_f7c91761717205e17f21dbf69153cc3be53d1d6a": "618459ee0b1d3cefc1728d13a66f33827445a726",
    "dashboard_card_central_d667b748a42d8176e24b13285085f7e108564927": "678b83f1c947e0342958c4a280c54709c7456aa0",
    "dashboard_card_central_6e906c6668e550cb887c3f8a4b9e10e3df6cc46e": "f7bedbfff9db4228e700d2b265345d7948d26a11",
    "dashboard_card_central_3ec248c6c47be59daaca368e42982a7b2fed6b18": "2be04e30301f022715648767c8eb1c753e15912e",
    "dashboard_card_central_14b54d63edfb31667eaa7f10167ac3690b835c22": "ce5fa8710b32c4fd1a3381c1a0ced7a2e5c2b824",
    "dashboard_card_central_a665c666a2dc3f191a4c65b01b6018d6c0e14e1a": "b2e8a1c136dd69c3fa4dfdfb74d9f941233bf87f",
    "dashboard_card_central_676b90f778ff110c59f3a6d21e0ec27f28c56358": "8db5dc4c9202eb5d19d697fa69301e0756e2a034",
    "c6b21a15d9b49dd96a61ba7b60f34383e398da5e": "14e79dcfed6e01a535757b6f835674baf45eb917",
    "dashboard_card_central_c09bf5c520236f74a15fc7bca993f8a5c6c14b67": "5a6ce6c65fd353361a79f0a95bfe0520db9bd30b",
    "da39a3ee5e6b4b0d3255bfef95601890afd80709": "9777eda0e8eaaccbe63205afa4feb24b967a123b",
    "dashboard_card_central_7ef67b3edc3bb0923fb1dac557f2b215a3017d6b": "0da84569ff3c97922d73f75145cd4152421a6604",
    "dashboard_card_central_c1bc285db41c026317c7d20edc2f3d83c90e4e93": "bb8bef61a1a7666a55ad9f0c4c3081c7adfc0061",
    "dashboard_card_central_562e4182b34cec39ad57c88b4d968c5fa784df77": "ae64f1e7d4f1a1b880a91b39bee81e7094dc9727",
    "dashboard_card_central_4dcab6117ee8544bc7a3d62d66a7906eab06f053": "9ee4d11f2661516debca27327592a574fe76ad0d",
    "dashboard_card_central_4797483a08de42d56761ee7830eeeb8f0c909e90": "cdb20a42dc559ecadbf24b7d9187339c83f13cd1",
    "dashboard_card_central_40085c41cfdc49947e0e459b28bdccef6a81cef4": "0f3fa1076d38dfa3b4c2dfdd5001498fbe2c49c4",
    "dashboard_card_central_d737f58ee08ebb0020d0c0ca39086d32f8297c10": "e34c31e3792372c7bd2e033d37412df4a7e8e659",
    "dashboard_card_central_dccf2ac70481e4c53f8390c4947ad65873a037d7": "d2efb67da0ecb57cf5702fb1d6e3eb2fff62ddb3",
    "dashboard_card_central_7b0bbc1831e45ae45231ea13dac9c8af6ba9b168": "05ca20a6505ca9becc52f03f265f7d0272052f3b",
    "dashboard_card_central_64d410f463e4dbdb47294238e8f0bcb68e3b3ee6": "ed0c3caf345c218ab05bbf156644f2f460f15817",
    "dashboard_card_central_4a08a34678b8165435786689a7ae13f8364c4885": "494c6d17017db69dd06af288fad1abe1fef77d17",
    "dashboard_card_central_919944549fa5adcbe41ab6e69478c08e9f72d895": "863d5c2542d161d075206a9266d35e89ebeb9976",
    "dashboard_card_central_82e8f189c7a14a9d171ae2161494ce94060d5df8": "bb3ba8fcdc98ae5c98f18ed3d6331387345e6cc8",
    "dashboard_card_central_36af209dcef21aac6b9fd28bc1e2013d61551cc9": "4574b8bfea010355f41cdf2cc08c9bcd1eea194e",
    "dashboard_card_central_9b696c6ea2d88f490bc71f077e1575f01f2113fb": "811d782b21f9c1d7f915ec54d2719010ae993a4d",
    "dashboard_card_central_8b2d3321886b965e4bfd1174f114030e051c2c96": "5924053f8657eec73e55d25e58a58593819546fc",
    "b92cce63547446cca1cb0f9fcf4222c8d955e311": "31f5d513c74b3f496bddb81ff0f514e10989ff89",
    "dashboard_card_central_fea761ad2e52c8db061446e1ba5c3e6c8dce179a": "8102cef418fd7619063fd6160b80e9182c88ddb9",
    "bc1d79218e2e2aee1a6185bdad89bba060414c98": "8b677f4252a0ae0d890792f1fa2d2459c8d5f1e5",
    "dashboard_card_central_ea3f24cde9c7d6c9a63424c0d6e995a1536deb80": "fffe214ae45a917eadb235013b1b265feda0267d"
}